L2 Naïve Bayes Classifier
…
90%
220

4.3 Prediction

To make a prediction for each parolee, we are going to take each parolee’s data and “pivot” it into a long form. For example,

datRecid |>
  select(ID, Gender, Age_at_Release, Education_Level,
         Prior_Conviction_Episodes_Viol,
         Prison_Offense,Prison_Years) |>
  pivot_longer(-ID, names_to="var")

# A tibble: 155,010 × 3
      ID var                            value                
   <int> <chr>                          <chr>                
 1     1 Gender                         M                    
 2     1 Age_at_Release                 43-47                
 3     1 Education_Level                At least some college
 4     1 Prior_Conviction_Episodes_Viol false                
 5     1 Prison_Offense                 Drug                 
 6     1 Prison_Years                   More than 3 years    
 7     2 Gender                         M                    
 8     2 Age_at_Release                 33-37                
 9     2 Education_Level                Less than HS diploma 
10     2 Prior_Conviction_Episodes_Viol true                 
# ℹ 155,000 more rows

In this way each row contains one feature for each parolee. Putting it in this form will allow us to join these features with their associated weights of evidence.

predNBwoe <- datRecid |>
  select(ID, Gender, Age_at_Release, Education_Level,
         Prior_Conviction_Episodes_Viol,
         Prison_Offense,Prison_Years) |>
  pivot_longer(-ID, names_to="var") |>
  mutate(value = ifelse(value=="", "NA", value)) |>
  left_join(modNB, join_by(var, value))
predNBwoe

# A tibble: 155,010 × 4
      ID var                            value                   woe
   <int> <chr>                          <chr>                 <dbl>
 1     1 Gender                         M                         7
 2     1 Age_at_Release                 43-47                   -29
 3     1 Education_Level                At least some college   -52
 4     1 Prior_Conviction_Episodes_Viol false                    -7
 5     1 Prison_Offense                 Drug                    -15
 6     1 Prison_Years                   More than 3 years       -45
 7     2 Gender                         M                         7
 8     2 Age_at_Release                 33-37                    -2
 9     2 Education_Level                Less than HS diploma     12
10     2 Prior_Conviction_Episodes_Viol true                     14
# ℹ 155,000 more rows

Note that after the left_join() we have the correct weights of evidence the associate feature and its value. To make a prediction we just need to add all of the weights of evidence for each ID plus the prior weight of evidence.

# get predictions
predNB <- predNBwoe |>
  group_by(ID) |>
  summarize(totalWoE=modNB$woe[1] + sum(woe), # add prior WoE to WoE sum
            p=1/(1+exp(-totalWoE/100)))
predNB

# A tibble: 25,835 × 3
      ID totalWoE     p
   <int>    <dbl> <dbl>
 1     1     -110 0.250
 2     2        2 0.505
 3     3      -68 0.336
 4     4       63 0.652
 5     5       58 0.641
 6     6        6 0.515
 7     7        3 0.507
 8     8       16 0.540
 9     9      -30 0.426
10    10       17 0.542
# ℹ 25,825 more rows
…
